{
    "key": "group_5cfda4270e2d5",
    "title": "Footer Carousel Checkbox",
    "fields": [
        {
            "key": "field_5cfda4449a2af",
            "label": "Footer Carousel",
            "name": "footer_carousel",
            "type": "true_false",
            "instructions": "Check to enable the global footer on this page.",
            "required": 0,
            "conditional_logic": 0,
            "wrapper": {
                "width": "",
                "class": "",
                "id": ""
            },
            "message": "",
            "default_value": 0,
            "ui": 0,
            "ui_on_text": "",
            "ui_off_text": ""
        }
    ],
    "location": [
        [
            {
                "param": "page_template",
                "operator": "==",
                "value": "all-sections.php"
            }
        ],
        [
            {
                "param": "page_template",
                "operator": "==",
                "value": "event-calendar.php"
            }
        ]
    ],
    "menu_order": 0,
    "position": "side",
    "style": "default",
    "label_placement": "top",
    "instruction_placement": "label",
    "hide_on_screen": "",
    "active": 1,
    "description": "",
    "modified": 1560127358
}