{
    "key": "group_5cdd25378ca32",
    "title": "Section Ninja Forms",
    "fields": [
        {
            "key": "field_5cdd258343dec",
            "label": "Heading",
            "name": "",
            "type": "tab",
            "instructions": "",
            "required": 0,
            "conditional_logic": 0,
            "wrapper": {
                "width": "",
                "class": "",
                "id": ""
            },
            "placement": "top",
            "endpoint": 0
        },
        {
            "key": "field_5cdd258643ded",
            "label": "Heading",
            "name": "forms_section_heading_copy",
            "type": "wysiwyg",
            "instructions": "",
            "required": 0,
            "conditional_logic": 0,
            "wrapper": {
                "width": "",
                "class": "",
                "id": ""
            },
            "default_value": "",
            "tabs": "all",
            "toolbar": "full",
            "media_upload": 0,
            "delay": 0
        },
        {
            "key": "field_5cdd2618f4257",
            "label": "Form",
            "name": "",
            "type": "tab",
            "instructions": "",
            "required": 0,
            "conditional_logic": 0,
            "wrapper": {
                "width": "",
                "class": "",
                "id": ""
            },
            "placement": "top",
            "endpoint": 0
        },
        {
            "key": "field_5cdd25452420c",
            "label": "Form Selector",
            "name": "form_selector",
            "type": "ninja_forms_field",
            "instructions": "",
            "required": 0,
            "conditional_logic": 0,
            "wrapper": {
                "width": "",
                "class": "",
                "id": ""
            },
            "allow_null": 1,
            "allow_multiple": 0,
            "multiple": 1
        },
        {
            "key": "field_5cdd25c3ace75",
            "label": "Settings",
            "name": "",
            "type": "tab",
            "instructions": "",
            "required": 0,
            "conditional_logic": 0,
            "wrapper": {
                "width": "",
                "class": "",
                "id": ""
            },
            "placement": "top",
            "endpoint": 0
        },
        {
            "key": "field_5cdd27c4c3ade",
            "label": "Form Width",
            "name": "forms_width",
            "type": "select",
            "instructions": "Select the width of the form column. Form will always appear full width on mobile devices.",
            "required": 0,
            "conditional_logic": 0,
            "wrapper": {
                "width": "50",
                "class": "",
                "id": ""
            },
            "choices": {
                "tiny": "Tiny",
                "narrow": "Narrow",
                "medium": "Medium",
                "wide": "Wide",
                "two": "Two Columns"
            },
            "default_value": [
                "wide"
            ],
            "allow_null": 0,
            "multiple": 0,
            "ui": 0,
            "return_format": "value",
            "ajax": 0,
            "placeholder": ""
        },
        {
            "key": "field_5cff02a5af4fe",
            "label": "Background Color",
            "name": "forms_bg",
            "type": "select",
            "instructions": "Select a colour for the background of this section.",
            "required": 0,
            "conditional_logic": 0,
            "wrapper": {
                "width": "50",
                "class": "",
                "id": ""
            },
            "choices": {
                "grey": "Grey",
                "white": "White",
                "default": "Default"
            },
            "default_value": [
                "white"
            ],
            "allow_null": 0,
            "multiple": 0,
            "ui": 0,
            "return_format": "value",
            "ajax": 0,
            "placeholder": ""
        },
        {
            "key": "field_5cdd25b4d175d",
            "label": "Remove Padding",
            "name": "forms_section_remove_padding",
            "type": "select",
            "instructions": "Remove top, bottom or both paddings.",
            "required": 0,
            "conditional_logic": 0,
            "wrapper": {
                "width": "33",
                "class": "",
                "id": ""
            },
            "choices": {
                "top": "Remove Top",
                "bottom": "Remove Bottom",
                "both": "Remove Both"
            },
            "default_value": [],
            "allow_null": 1,
            "multiple": 0,
            "ui": 0,
            "return_format": "value",
            "ajax": 0,
            "placeholder": ""
        }
    ],
    "location": [
        [
            {
                "param": "post_type",
                "operator": "==",
                "value": "post"
            }
        ]
    ],
    "menu_order": 0,
    "position": "normal",
    "style": "default",
    "label_placement": "top",
    "instruction_placement": "label",
    "hide_on_screen": "",
    "active": 0,
    "description": "",
    "modified": 1560850988
}